MyLabJournal - 01 Intro to the tidyverse
…
library(readxl)
# 2.0 Importing Files ----
bikes_tbl      <- read_excel(path = "C:/Users/afjal/OneDrive/Documents/GitHub/ss24-bdsb-Afjalbhai1771/ss24-bdsb-Afjalbhai1771/ds_data/01_bike_sales/01_raw_data/bikes.xlsx")
orderlines_tbl <- read_excel("C:/Users/afjal/OneDrive/Documents/GitHub/ss24-bdsb-Afjalbhai1771/ss24-bdsb-Afjalbhai1771/ds_data/01_bike_sales/01_raw_data/orderlines.xlsx")

New names:
• `` -> `...1`

bikeshops_tbl  <- read_excel("C:/Users/afjal/OneDrive/Documents/GitHub/ss24-bdsb-Afjalbhai1771/ss24-bdsb-Afjalbhai1771/ds_data/01_bike_sales/01_raw_data/bikeshops.xlsx")
# 3.0 Examining Data ----
orderlines_tbl

# A tibble: 15,644 × 7
   ...1  order.id order.line order.date          customer.id product.id quantity
   <chr>    <dbl>      <dbl> <dttm>                    <dbl>      <dbl>    <dbl>
 1 1            1          1 2015-01-07 00:00:00           2       2681        1
 2 2            1          2 2015-01-07 00:00:00           2       2411        1
 3 3            2          1 2015-01-10 00:00:00          10       2629        1
 4 4            2          2 2015-01-10 00:00:00          10       2137        1
 5 5            3          1 2015-01-10 00:00:00           6       2367        1
 6 6            3          2 2015-01-10 00:00:00           6       1973        1
 7 7            3          3 2015-01-10 00:00:00           6       2422        1
 8 8            3          4 2015-01-10 00:00:00           6       2655        1
 9 9            3          5 2015-01-10 00:00:00           6       2247        1
10 10           4          1 2015-01-11 00:00:00          22       2408        1
# ℹ 15,634 more rows
…
  # Format $ Text
  mutate(sales_text = scales::dollar(sales, big.mark = ".", 
                                     decimal.mark = ",", 
                                     prefix = "", 
                                     suffix = " EUR"))

`summarise()` has grouped output by 'year'. You can override using the
`.groups` argument.

sales_by_year_location_tbl  

# A tibble: 60 × 4
    year state                              sales sales_text   
   <dbl> <chr>                              <dbl> <chr>        
 1  2015 " Baden-Württemberg"             1031924 1.031.924 EUR
 2  2015 " Bavaria"                       1301461 1.301.461 EUR
 3  2015 " Berlin"                          95853 95.853 EUR   
 4  2015 " Bremen"                        1395912 1.395.912 EUR
 5  2015 " Hamburg"                        423090 423.090 EUR  
 6  2015 " Hesse"                          308609 308.609 EUR  
 7  2015 " Lower Saxony"                   584386 584.386 EUR  
 8  2015 " Mecklenburg-Western Pomerania"  222003 222.003 EUR  
 9  2015 " North Rhine-Westphalia"        3735092 3.735.092 EUR
10  2015 " Saxony"                         238371 238.371 EUR  
# ℹ 50 more rows
…
